module bff

go 1.22

require (
	github.com/coreos/go-oidc/v3 v3.10.0
	github.com/gin-contrib/cors v1.7.2
	github.com/gin-gonic/gin v1.10.0
	github.com/go-playground/validator/v10 v10.20.0
	github.com/go-resty/resty/v2 v2.13.1
	github.com/gorilla/csrf v1.7.2
	github.com/gwatts/gin-adapter v1.0.0
	github.com/joho/godotenv v1.5.1
	github.com/json-iterator/go v1.1.12
	github.com/maypok86/otter v1.2.1
	go.uber.org/zap v1.27.0
	golang.org/x/oauth2 v0.20.0
	gopkg.in/natefinch/lumberjack.v2 v2.2.1
	github.com/google/uuid v1.6.0
)

require (
	github.com/bytedance/sonic v1.11.6 // indirect
	github.com/bytedance/sonic/loader v0.1.1 // indirect
	github.com/cloudwego/base64x v0.1.4 // indirect
	github.com/cloudwego/iasm v0.2.0 // indirect
	github.com/dolthub/maphash v0.1.0 // indirect
	github.com/gabriel-vasile/mimetype v1.4.3 // indirect
	github.com/gammazero/deque v0.2.1 // indirect
	github.com/gin-contrib/sse v0.1.0 // indirect
	github.com/go-jose/go-jose/v4 v4.0.2 // indirect
	github.com/go-playground/locales v0.14.1 // indirect
	github.com/go-playground/universal-translator v0.18.1 // indirect
	github.com/goccy/go-json v0.10.2 // indirect
	github.com/google/go-cmp v0.6.0 // indirect
	github.com/gorilla/securecookie v1.1.2 // indirect
	github.com/klauspost/cpuid/v2 v2.2.7 // indirect
	github.com/leodido/go-urn v1.4.0 // indirect
	github.com/mattn/go-isatty v0.0.20 // indirect
	github.com/modern-go/concurrent v0.0.0-20180306012644-bacd9c7ef1dd // indirect
	github.com/modern-go/reflect2 v1.0.2 // indirect
	github.com/pelletier/go-toml/v2 v2.2.2 // indirect
	github.com/rogpeppe/go-internal v1.12.0 // indirect
	github.com/twitchyliquid64/golang-asm v0.15.1 // indirect
	github.com/ugorji/go/codec v1.2.12 // indirect
	go.uber.org/multierr v1.11.0 // indirect
	golang.org/x/arch v0.8.0 // indirect
	golang.org/x/crypto v0.23.0 // indirect
	golang.org/x/net v0.25.0 // indirect
	golang.org/x/sys v0.20.0 // indirect
	golang.org/x/text v0.15.0 // indirect
	google.golang.org/protobuf v1.34.1 // indirect
	gopkg.in/yaml.v3 v3.0.1 // indirect
)
